[gd_scene load_steps=2 format=2]

[ext_resource path="res://src/OceanFloor.gd" type="Script" id=1]

[node name="OceanFloor" type="Spatial"]
script = ExtResource( 1 )

[node name="Floors" type="Spatial" parent="."]
