[gd_scene load_steps=5 format=2]

[ext_resource path="res://src/Player.gd" type="Script" id=1]
[ext_resource path="res://src/test/TestHUD.tscn" type="PackedScene" id=2]

[sub_resource type="CapsuleShape" id=1]
radius = 0.5

[sub_resource type="BoxShape" id=2]
extents = Vector3( 0.4, 0.1, 0.4 )

[node name="Player" type="KinematicBody"]
collision_layer = 8
collision_mask = 6
script = ExtResource( 1 )

[node name="Pivot" type="Spatial" parent="."]
transform = Transform( 1, 0, 0, 0, 1, 0, 0, 0, 1, 0, 1.65525, 0 )

[node name="Camera" type="Camera" parent="Pivot"]
current = true
far = 1000.0

[node name="InteractRay" type="RayCast" parent="Pivot/Camera"]
enabled = true
cast_to = Vector3( 0, 0, -10 )
collision_mask = 6
collide_with_areas = true

[node name="Body" type="CollisionShape" parent="."]
transform = Transform( 1, 0, 0, 0, -4.37114e-08, -1, 0, 1, -4.37114e-08, 0, 1, 0 )
shape = SubResource( 1 )

[node name="Feet" type="CollisionShape" parent="."]
transform = Transform( 1, 0, 0, 0, 1, 0, 0, 0, 1, 0, 0.133231, 0 )
shape = SubResource( 2 )

[node name="HUDCanvas" type="CanvasLayer" parent="."]

[node name="HUD" parent="HUDCanvas" instance=ExtResource( 2 )]
