[gd_scene load_steps=2 format=2]

[ext_resource path="res://meshes/flora/coral3.obj" type="ArrayMesh" id=1]

[node name="Coral3" type="Spatial"]
transform = Transform( 10, 0, 0, 0, 10, 0, 0, 0, 10, 0, 0, 0 )

[node name="CoralMesh" type="MeshInstance" parent="."]
transform = Transform( -1.62921e-07, 0, 1, 0, 1, 0, -1, 0, -1.62921e-07, 0, 0, 0 )
mesh = ExtResource( 1 )
material/0 = null
