[gd_scene load_steps=3 format=2]

[ext_resource path="res://meshes/shipwheel.fbx" type="PackedScene" id=1]
[ext_resource path="res://meshes/RailingMat.material" type="Material" id=2]

[node name="shipwheel" instance=ExtResource( 1 )]

[node name="Wheel_base2" parent="." index="1"]
material_override = ExtResource( 2 )
